<svg id="ico-whatsapp" xmlns="http://www.w3.org/2000/svg" width="24" height="24.196" viewBox="0 0 24 24.196">
  <path id="Caminho_7" data-name="Caminho 7" d="M13.1.014A12,12,0,0,0,3,17.45L1.722,23.635a.467.467,0,0,0,.565.549l6.06-1.436A12,12,0,1,0,13.1.014Zm7.231,18.63A9.4,9.4,0,0,1,9.508,20.417L8.664,20l-3.715.88.782-3.8-.416-.814A9.4,9.4,0,0,1,7.046,5.356,9.4,9.4,0,1,1,20.334,18.645Z" transform="translate(-1.69 0)" fill="#fff"/>
  <path id="Caminho_8" data-name="Caminho 8" d="M116.451,115.8l-2.324-.667a.866.866,0,0,0-.857.226l-.568.579a.847.847,0,0,1-.921.194,12.409,12.409,0,0,1-4-3.53.847.847,0,0,1,.067-.938l.5-.642a.866.866,0,0,0,.107-.88l-.978-2.212a.867.867,0,0,0-1.354-.31,3.91,3.91,0,0,0-1.512,2.306c-.165,1.629.533,3.682,3.175,6.147,3.051,2.848,5.495,3.224,7.086,2.839a3.909,3.909,0,0,0,2.079-1.812A.867.867,0,0,0,116.451,115.8Z" transform="translate(-98.627 -101.201)" fill="#fff"/>
</svg>
