<svg xmlns="http://www.w3.org/2000/svg" width="24" height="24" viewBox="0 0 24 24">
  <path id="ico-spotify" d="M12,0A12,12,0,1,0,24,12,12,12,0,0,0,12,0Zm5.223,17.416a.82.82,0,0,1-1.123.294A12.08,12.08,0,0,0,9.742,16.3a15.773,15.773,0,0,0-3.3.436.821.821,0,0,1-.435-1.583,17.087,17.087,0,0,1,3.637-.492,16.02,16.02,0,0,1,3.5.254,11.827,11.827,0,0,1,3.778,1.379A.821.821,0,0,1,17.223,17.416Zm1.526-3.169a.972.972,0,0,1-1.33.349,14.309,14.309,0,0,0-7.532-1.671,18.687,18.687,0,0,0-3.907.516.972.972,0,0,1-.515-1.875,20.235,20.235,0,0,1,4.308-.583,18.98,18.98,0,0,1,4.151.3A14.011,14.011,0,0,1,18.4,12.917.972.972,0,0,1,18.749,14.247Zm.938-2.881a1.187,1.187,0,0,1-.6-.163C13.013,7.654,5.136,9.764,5.057,9.786a1.192,1.192,0,0,1-.633-2.3,24.818,24.818,0,0,1,5.285-.715A23.285,23.285,0,0,1,14.8,7.14a17.184,17.184,0,0,1,5.49,2,1.192,1.192,0,0,1-.6,2.222Z" fill="#fff"/>
</svg>
